<svg width="22" height="20" viewBox="0 0 22 20" fill="none" xmlns="http://www.w3.org/2000/svg">
<path d="M15.851 0.525304C14.9823 0.568616 14.1206 0.907429 13.4056 1.62237L1.36554 13.6625C0.637663 14.3903 0.371975 15.2912 0.46521 16.1305C0.558491 16.9697 0.983319 17.7469 1.58051 18.3441C2.1776 18.9413 2.95488 19.3661 3.79408 19.4594C4.63338 19.5527 5.53422 19.2869 6.26205 18.5591L16.5822 8.23915C17.5665 7.25477 17.4938 5.97415 16.7972 5.27749C16.1006 4.58093 14.8198 4.50813 13.8355 5.49246L6.95557 12.3724L7.55219 12.9691L14.4323 6.08904C15.1679 5.35333 15.8223 5.4956 16.2006 5.87398C16.5791 6.2524 16.7213 6.90673 15.9856 7.64243L5.66557 17.9624C5.10344 18.5246 4.49932 18.6889 3.88737 18.6209C3.27537 18.5529 2.65502 18.2253 2.17713 17.7475C1.69929 17.2696 1.37173 16.6492 1.30376 16.0372C1.23579 15.4252 1.40004 14.8211 1.96216 14.259L14.0022 2.21899C14.769 1.45221 15.651 1.25323 16.5765 1.40946C17.5021 1.56574 18.4574 2.11071 19.2107 2.86399C19.9639 3.61718 20.5089 4.57258 20.6652 5.49813C20.8214 6.42373 20.6224 7.30563 19.8557 8.07251L9.53566 18.3925L10.1322 18.9891L20.4523 8.66899C21.4055 7.71579 21.6903 6.50149 21.4971 5.35765C21.3041 4.2138 20.6666 3.12663 19.8073 2.26737C18.9481 1.40805 17.8609 0.770647 16.7171 0.577522C16.4311 0.529241 16.1407 0.510866 15.8511 0.525304H15.851Z" fill="#737373"/>
</svg>
